{
  "type": "service_account",
  "project_id": "epspot-playground",
  "private_key_id": "271e99ea78e9b599c019be0ad1ed44aa791a3415",
  "private_key": "-----BEGIN PRIVATE KEY-----\nMIIEvQIBADANBgkqhkiG9w0BAQEFAASCBKcwggSjAgEAAoIBAQDtE+I115aNPKnM\nyuQ9Br+UcWqeCLURi9qUogfXGdIeX8s3XG2biKczF9nMnnYWEFtSRDGlLzFdKCey\nXOZ7uoGo5cb/mMC0PS4idDTVZrpcnDypU3VsklKiIUdFokKHZg8VCfrXQPUl6i/i\nm/Qeb+gRO+bH62WlP3P6WybjYJwT9P8pPFOvxhYQDrWTSA9rhaiaT2Z+mxMP4NVF\nScZyjQXLnwbhem7pkZk8zes3RAGaFVCNqvHM+1sVCtK6KT1Pm37x4pEO0cdcRQoI\nFG9w+04c8+CA8TXKBR8TpwuBtXKQzVLclCNiimMXen5kgppLidTo4P/Bfj4ewVy+\nODGvFfdvAgMBAAECggEAIjfa+sDQXY1ScsPGt++H6lHeZ3XumzGPjcwUi/Lm9XRd\nHUiiwgQHd06WJJGrOJm0HJvJe0PkVkOhSyixKaLsllH9QXoCN7bsOD6D5liVRcr/\nzxluhYpZu/CdXAsZ8CIGbkJ0/pRFGJZZwqrrdr3Z2yxFWI381feNHVGtELzVJOSn\nad0TiqUOB/0A0B6D96ay2kJqsjtXtrR5nlDeUFkWeMtnfGz6u16NH4dFARhtHqWV\n4k0ZWn6Ev2e684hKLGU5XwETDGloVsCOSn6c8R0WhRDA/1KL3zLZ/sTnS8U3KO5s\n1Eq4xl8bobCz496YOGZaCyXtItU4PJvsOyMDjvE4AQKBgQD59RwFK8EqLnaBRpvS\nfDTNt8OHN1F/TzHoYwpbRxVtr2rst+7WVPAIrvS/JHFFaMhHHRoo/Axs1ucUOIdJ\nJWrj0ziYoOjLqVKl0vXleB1zynOLifGVa/hpOL5lcAzSgw+fH3qXTnDghvLEN06s\nFsuzZSYo/9ETRh2/kZB6RSV/bwKBgQDyzxDtleosV12k0pDpDi+/O0NNVV5WJBCq\nh31vo3KcPZXfCGAKsJI7uIWLYcm0HLIFC4BMaAUVsdQYV3qaIw1l21S5DjkbhYcd\nQjdZXA8Kv6RLF/KJL2mxBDcZnypZD8cLqamD5MukpvmYd39kAorHclQlo+RpWHBH\nSUOMZtsIAQKBgEebj65vjYQfEXYRm1xeluYEajCXiXJ2Zq7TiMkDgUEOCwzL2NFw\nPd/O93C26Phgf1fYH4F0S772hfbGBwPOg2PHRCR9nJOT64hz+lwF4DIm4pksKJiM\n+Ppz9h+rTREV2OjWJNGp+C5qmqvZyGEGms7HAHqoZuYlpSoXcpOEsaxjAoGBAKJx\nH60jf7A8nty3NtWEdTMl7cfeFifhJvk/fg7jNbkLhqnZC4/7Q0oLD+UI/g2uqPax\nFBuJ9+TkvLWwSMi4LK15SDwqJNChy5wqgacZ7MJPJhZLJirbeoVAAbD1iDpfUNYf\notYniopUX2W+hI6fGMOIXH12IUjNLwiyHivfYCgBAoGATCMTHwnMv4N8+fcNioMc\nCN95Jxp9eFvKqmYavJLkhrZA8LVU6FzGExILjKeIMyqHUFt32BgCxtvu9NeScn3w\nr0c2/O85thJBD1SzSILqSFfmi5Gt/8/6Bb82X4DU+R8fAeniXxlySy+1knqaF+Ci\n6tSFpf9t2VDwyTeWzKIIqsw=\n-----END PRIVATE KEY-----\n",
  "client_email": "app-engine-dev@epspot-playground.iam.gserviceaccount.com",
  "client_id": "102156772446929685166",
  "auth_uri": "https://accounts.google.com/o/oauth2/auth",
  "token_uri": "https://oauth2.googleapis.com/token",
  "auth_provider_x509_cert_url": "https://www.googleapis.com/oauth2/v1/certs",
  "client_x509_cert_url": "https://www.googleapis.com/robot/v1/metadata/x509/app-engine-dev%40epspot-playground.iam.gserviceaccount.com"
}
